<?xml version="1.0" encoding="UTF-8" standalone="no"?>
<!-- Created with Inkscape (http://www.inkscape.org/) -->

<svg
   width="210mm"
   height="297mm"
   viewBox="0 0 210 297"
   version="1.1"
   id="svg5"
   inkscape:version="1.1.2 (b8e25be8, 2022-02-05)"
   sodipodi:docname="logo.svg"
   inkscape:export-filename="/Users/dagurval/rostrum/contrib/logo/logo.png"
   inkscape:export-xdpi="122.547"
   inkscape:export-ydpi="122.547"
   xmlns:inkscape="http://www.inkscape.org/namespaces/inkscape"
   xmlns:sodipodi="http://sodipodi.sourceforge.net/DTD/sodipodi-0.dtd"
   xmlns:xlink="http://www.w3.org/1999/xlink"
   xmlns="http://www.w3.org/2000/svg"
   xmlns:svg="http://www.w3.org/2000/svg">
  <sodipodi:namedview
     id="namedview7"
     pagecolor="#ffffff"
     bordercolor="#666666"
     borderopacity="1.0"
     inkscape:pageshadow="2"
     inkscape:pageopacity="0.0"
     inkscape:pagecheckerboard="0"
     inkscape:document-units="mm"
     showgrid="false"
     inkscape:zoom="0.95546162"
     inkscape:cx="260.60701"
     inkscape:cy="383.06091"
     inkscape:window-width="1293"
     inkscape:window-height="786"
     inkscape:window-x="0"
     inkscape:window-y="25"
     inkscape:window-maximized="0"
     inkscape:current-layer="layer1" />
  <defs
     id="defs2">
    <linearGradient
       x1="0"
       y1="0"
       x2="1"
       y2="0"
       gradientUnits="userSpaceOnUse"
       gradientTransform="matrix(0,2000,2000,0,1000,0)"
       spreadMethod="pad"
       id="linearGradient28">
      <stop
         style="stop-opacity:1;stop-color:#06859a"
         offset="0"
         id="stop22" />
      <stop
         style="stop-opacity:1;stop-color:#06859a"
         offset="0.00630993"
         id="stop24" />
      <stop
         style="stop-opacity:1;stop-color:#2db194"
         offset="1"
         id="stop26" />
    </linearGradient>
    <linearGradient
       inkscape:collect="always"
       xlink:href="#linearGradient28"
       id="linearGradient13107"
       x1="18"
       y1="70"
       x2="122"
       y2="70"
       gradientUnits="userSpaceOnUse"
       gradientTransform="translate(-140)" />
  </defs>
  <g
     inkscape:label="Layer 1"
     inkscape:groupmode="layer"
     id="layer1">
    <g
       id="g10"
       transform="matrix(0.05,0,0,-0.05,20,120)"
       style="stroke-width:1;stroke-miterlimit:4;stroke-dasharray:none">
      <g
         id="g12"
         style="stroke-width:1;stroke-miterlimit:4;stroke-dasharray:none">
        <g
           id="g18"
           style="stroke-width:1;stroke-miterlimit:4;stroke-dasharray:none">
          <g
             id="g20"
             style="stroke-width:1;stroke-miterlimit:4;stroke-dasharray:none">
            <path
               d="M 0,0 H 2000 V 2000 H 0 Z"
               style="fill:url(#linearGradient28);stroke:none;stroke-width:1;stroke-miterlimit:4;stroke-dasharray:none"
               id="path30" />
          </g>
        </g>
      </g>
    </g>
    <rect
       style="fill:#2cb094;fill-opacity:0;stroke:url(#linearGradient13107);stroke-width:4;stroke-linecap:butt;stroke-linejoin:round;stroke-miterlimit:4;stroke-dasharray:none;stroke-opacity:1;paint-order:normal"
       id="rect8734"
       width="100"
       height="100"
       x="-120"
       y="20"
       transform="rotate(-90)" />
    <path
       style="fill:#ffffff;fill-opacity:1;stroke-width:0.171246"
       d="M 111.25653,92.808362 C 108.03419,84.085539 99.386915,80.388353 91.689028,80.021281 82.842056,78.731944 73.76135,78.609153 65.243093,75.263342 58.864332,74.034399 52.473708,72.433355 46.610409,69.218789 37.569615,66.109479 27.831162,67.105723 18.909555,63.408641 21.167118,59.687198 25.647622,60.555545 29.085978,60.137538 37.453552,58.62526 45.923337,58.16149 54.371884,57.591616 59.388342,57.029218 64.6139,57.001328 69.23671,54.421041 c 9.128741,-4.115884 19.320985,-7.543739 29.047208,-4.09517 7.833212,2.522787 13.997972,9.098002 19.573672,15.586511 1.80848,4.417509 0.12035,9.402911 -0.66305,13.882855 -1.97932,4.33772 -3.95862,8.675424 -5.93794,13.013125 0.1438,1.037028 0.13195,0.950684 -7e-5,0 z"
       id="path1520"
       sodipodi:nodetypes="cccccccccccccc" />
    <ellipse
       style="fill:#06859a;fill-opacity:1;stroke:#06859a;stroke-width:0.77912;stroke-linejoin:round;stroke-miterlimit:4;stroke-dasharray:none;stroke-opacity:1;paint-order:normal"
       id="path1916"
       cx="19.534489"
       cy="97.025887"
       transform="matrix(0.8313477,-0.55575264,0.6710733,0.74139101,0,0)"
       rx="1.7117158"
       ry="2.3369896" />
  </g>
</svg>
